{
  "project_info": {
    "project_number": "601533817118",
    "firebase_url": "https://gcp-tutorials-289708.firebaseio.com",
    "project_id": "gcp-tutorials-289708",
    "storage_bucket": "gcp-tutorials-289708.appspot.com"
  },
  "client": [
    {
      "client_info": {
        "mobilesdk_app_id": "1:601533817118:android:71308c2815d99b242de90f",
        "android_client_info": {
          "package_name": "polinema.mi.appx0e"
        }
      },
      "oauth_client": [
        {
          "client_id": "601533817118-nfuks5a3etipbhe0td1i3u874at8ktt7.apps.googleusercontent.com",
          "client_type": 3
        }
      ],
      "api_key": [
        {
          "current_key": "AIzaSyBw19xU5Kv2H15w72wyhmvf_NdE9j4rsBI"
        }
      ],
      "services": {
        "appinvite_service": {
          "other_platform_oauth_client": [
            {
              "client_id": "601533817118-nfuks5a3etipbhe0td1i3u874at8ktt7.apps.googleusercontent.com",
              "client_type": 3
            }
          ]
        }
      }
    },
    {
      "client_info": {
        "mobilesdk_app_id": "1:601533817118:android:2d7efd343d1132d42de90f",
        "android_client_info": {
          "package_name": "sari.ika.app0d"
        }
      },
      "oauth_client": [
        {
          "client_id": "601533817118-nfuks5a3etipbhe0td1i3u874at8ktt7.apps.googleusercontent.com",
          "client_type": 3
        }
      ],
      "api_key": [
        {
          "current_key": "AIzaSyBw19xU5Kv2H15w72wyhmvf_NdE9j4rsBI"
        }
      ],
      "services": {
        "appinvite_service": {
          "other_platform_oauth_client": [
            {
              "client_id": "601533817118-nfuks5a3etipbhe0td1i3u874at8ktt7.apps.googleusercontent.com",
              "client_type": 3
            }
          ]
        }
      }
    },
    {
      "client_info": {
        "mobilesdk_app_id": "1:601533817118:android:d040be8ea656fcc12de90f",
        "android_client_info": {
          "package_name": "sari.ika.appx0e"
        }
      },
      "oauth_client": [
        {
          "client_id": "601533817118-nfuks5a3etipbhe0td1i3u874at8ktt7.apps.googleusercontent.com",
          "client_type": 3
        }
      ],
      "api_key": [
        {
          "current_key": "AIzaSyBw19xU5Kv2H15w72wyhmvf_NdE9j4rsBI"
        }
      ],
      "services": {
        "appinvite_service": {
          "other_platform_oauth_client": [
            {
              "client_id": "601533817118-nfuks5a3etipbhe0td1i3u874at8ktt7.apps.googleusercontent.com",
              "client_type": 3
            }
          ]
        }
      }
    }
  ],
  "configuration_version": "1"
}